FinalEx
…
ggsave('outData/FinalEx6.png')

## Saving 7 x 5 in image

1   data.frame      ,           10  .

data <- read_excel("inData/Koweps/Koweps_Codebook_job.xlsx")
data

## # A tibble: 149 x 2
##    code_job job                                 
##       <dbl> <chr>                               
##  1      111     
##  2      112                         
##  3      120                 
##  4      131             
##  5      132                     
##  6      133             
##  7      134       
##  8      135                   
##  9      139                 
## 10      141             
## # ... with 139 more rows
…
